<?xml version="1.0"?>
<font>
  <info face="Bm437 IBM ISO9" size="16" bold="0" italic="0" charset="" unicode="1" stretchH="100" smooth="0" aa="1" padding="0,0,0,0" spacing="1,1" outline="0"/>
  <common lineHeight="16" base="12" scaleW="256" scaleH="256" pages="1" packed="0" alphaChnl="1" redChnl="0" greenChnl="0" blueChnl="0"/>
  <pages>
    <page id="0" file="iso9_0.png" />
  </pages>
  <chars count="95">
    <char id="32" x="0" y="0" width="27" height="16" xoffset="0" yoffset="0" xadvance="27" page="0" chnl="15" />
    <char id="33" x="28" y="0" width="9" height="16" xoffset="0" yoffset="0" xadvance="9" page="0" chnl="15" />
    <char id="34" x="38" y="0" width="9" height="16" xoffset="0" yoffset="0" xadvance="9" page="0" chnl="15" />
    <char id="35" x="48" y="0" width="9" height="16" xoffset="0" yoffset="0" xadvance="9" page="0" chnl="15" />
    <char id="36" x="58" y="0" width="9" height="16" xoffset="0" yoffset="0" xadvance="9" page="0" chnl="15" />
    <char id="37" x="68" y="0" width="9" height="16" xoffset="0" yoffset="0" xadvance="9" page="0" chnl="15" />
    <char id="38" x="78" y="0" width="9" height="16" xoffset="0" yoffset="0" xadvance="9" page="0" chnl="15" />
    <char id="39" x="88" y="0" width="9" height="16" xoffset="0" yoffset="0" xadvance="9" page="0" chnl="15" />
    <char id="40" x="98" y="0" width="9" height="16" xoffset="0" yoffset="0" xadvance="9" page="0" chnl="15" />
    <char id="41" x="108" y="0" width="9" height="16" xoffset="0" yoffset="0" xadvance="9" page="0" chnl="15" />
    <char id="42" x="118" y="0" width="9" height="16" xoffset="0" yoffset="0" xadvance="9" page="0" chnl="15" />
    <char id="43" x="128" y="0" width="9" height="16" xoffset="0" yoffset="0" xadvance="9" page="0" chnl="15" />
    <char id="44" x="138" y="0" width="9" height="16" xoffset="0" yoffset="0" xadvance="9" page="0" chnl="15" />
    <char id="45" x="148" y="0" width="9" height="16" xoffset="0" yoffset="0" xadvance="9" page="0" chnl="15" />
    <char id="46" x="158" y="0" width="9" height="16" xoffset="0" yoffset="0" xadvance="9" page="0" chnl="15" />
    <char id="47" x="168" y="0" width="9" height="16" xoffset="0" yoffset="0" xadvance="9" page="0" chnl="15" />
    <char id="48" x="178" y="0" width="9" height="16" xoffset="0" yoffset="0" xadvance="9" page="0" chnl="15" />
    <char id="49" x="188" y="0" width="9" height="16" xoffset="0" yoffset="0" xadvance="9" page="0" chnl="15" />
    <char id="50" x="198" y="0" width="9" height="16" xoffset="0" yoffset="0" xadvance="9" page="0" chnl="15" />
    <char id="51" x="208" y="0" width="9" height="16" xoffset="0" yoffset="0" xadvance="9" page="0" chnl="15" />
    <char id="52" x="218" y="0" width="9" height="16" xoffset="0" yoffset="0" xadvance="9" page="0" chnl="15" />
    <char id="53" x="228" y="0" width="9" height="16" xoffset="0" yoffset="0" xadvance="9" page="0" chnl="15" />
    <char id="54" x="238" y="0" width="9" height="16" xoffset="0" yoffset="0" xadvance="9" page="0" chnl="15" />
    <char id="55" x="0" y="17" width="9" height="16" xoffset="0" yoffset="0" xadvance="9" page="0" chnl="15" />
    <char id="56" x="10" y="17" width="9" height="16" xoffset="0" yoffset="0" xadvance="9" page="0" chnl="15" />
    <char id="57" x="20" y="17" width="9" height="16" xoffset="0" yoffset="0" xadvance="9" page="0" chnl="15" />
    <char id="58" x="30" y="17" width="9" height="16" xoffset="0" yoffset="0" xadvance="9" page="0" chnl="15" />
    <char id="59" x="40" y="17" width="9" height="16" xoffset="0" yoffset="0" xadvance="9" page="0" chnl="15" />
    <char id="60" x="50" y="17" width="9" height="16" xoffset="0" yoffset="0" xadvance="9" page="0" chnl="15" />
    <char id="61" x="60" y="17" width="9" height="16" xoffset="0" yoffset="0" xadvance="9" page="0" chnl="15" />
    <char id="62" x="70" y="17" width="9" height="16" xoffset="0" yoffset="0" xadvance="9" page="0" chnl="15" />
    <char id="63" x="80" y="17" width="9" height="16" xoffset="0" yoffset="0" xadvance="9" page="0" chnl="15" />
    <char id="64" x="90" y="17" width="9" height="16" xoffset="0" yoffset="0" xadvance="9" page="0" chnl="15" />
    <char id="65" x="100" y="17" width="9" height="16" xoffset="0" yoffset="0" xadvance="9" page="0" chnl="15" />
    <char id="66" x="110" y="17" width="9" height="16" xoffset="0" yoffset="0" xadvance="9" page="0" chnl="15" />
    <char id="67" x="120" y="17" width="9" height="16" xoffset="0" yoffset="0" xadvance="9" page="0" chnl="15" />
    <char id="68" x="130" y="17" width="9" height="16" xoffset="0" yoffset="0" xadvance="9" page="0" chnl="15" />
    <char id="69" x="140" y="17" width="9" height="16" xoffset="0" yoffset="0" xadvance="9" page="0" chnl="15" />
    <char id="70" x="150" y="17" width="9" height="16" xoffset="0" yoffset="0" xadvance="9" page="0" chnl="15" />
    <char id="71" x="160" y="17" width="9" height="16" xoffset="0" yoffset="0" xadvance="9" page="0" chnl="15" />
    <char id="72" x="170" y="17" width="9" height="16" xoffset="0" yoffset="0" xadvance="9" page="0" chnl="15" />
    <char id="73" x="180" y="17" width="9" height="16" xoffset="0" yoffset="0" xadvance="9" page="0" chnl="15" />
    <char id="74" x="190" y="17" width="9" height="16" xoffset="0" yoffset="0" xadvance="9" page="0" chnl="15" />
    <char id="75" x="200" y="17" width="9" height="16" xoffset="0" yoffset="0" xadvance="9" page="0" chnl="15" />
    <char id="76" x="210" y="17" width="9" height="16" xoffset="0" yoffset="0" xadvance="9" page="0" chnl="15" />
    <char id="77" x="220" y="17" width="9" height="16" xoffset="0" yoffset="0" xadvance="9" page="0" chnl="15" />
    <char id="78" x="230" y="17" width="9" height="16" xoffset="0" yoffset="0" xadvance="9" page="0" chnl="15" />
    <char id="79" x="240" y="17" width="9" height="16" xoffset="0" yoffset="0" xadvance="9" page="0" chnl="15" />
    <char id="80" x="0" y="34" width="9" height="16" xoffset="0" yoffset="0" xadvance="9" page="0" chnl="15" />
    <char id="81" x="10" y="34" width="9" height="16" xoffset="0" yoffset="0" xadvance="9" page="0" chnl="15" />
    <char id="82" x="20" y="34" width="9" height="16" xoffset="0" yoffset="0" xadvance="9" page="0" chnl="15" />
    <char id="83" x="30" y="34" width="9" height="16" xoffset="0" yoffset="0" xadvance="9" page="0" chnl="15" />
    <char id="84" x="40" y="34" width="9" height="16" xoffset="0" yoffset="0" xadvance="9" page="0" chnl="15" />
    <char id="85" x="50" y="34" width="9" height="16" xoffset="0" yoffset="0" xadvance="9" page="0" chnl="15" />
    <char id="86" x="60" y="34" width="9" height="16" xoffset="0" yoffset="0" xadvance="9" page="0" chnl="15" />
    <char id="87" x="70" y="34" width="9" height="16" xoffset="0" yoffset="0" xadvance="9" page="0" chnl="15" />
    <char id="88" x="80" y="34" width="9" height="16" xoffset="0" yoffset="0" xadvance="9" page="0" chnl="15" />
    <char id="89" x="90" y="34" width="9" height="16" xoffset="0" yoffset="0" xadvance="9" page="0" chnl="15" />
    <char id="90" x="100" y="34" width="9" height="16" xoffset="0" yoffset="0" xadvance="9" page="0" chnl="15" />
    <char id="91" x="110" y="34" width="9" height="16" xoffset="0" yoffset="0" xadvance="9" page="0" chnl="15" />
    <char id="92" x="120" y="34" width="9" height="16" xoffset="0" yoffset="0" xadvance="9" page="0" chnl="15" />
    <char id="93" x="130" y="34" width="9" height="16" xoffset="0" yoffset="0" xadvance="9" page="0" chnl="15" />
    <char id="94" x="140" y="34" width="9" height="16" xoffset="0" yoffset="0" xadvance="9" page="0" chnl="15" />
    <char id="95" x="150" y="34" width="9" height="16" xoffset="0" yoffset="0" xadvance="9" page="0" chnl="15" />
    <char id="96" x="160" y="34" width="9" height="16" xoffset="0" yoffset="0" xadvance="9" page="0" chnl="15" />
    <char id="97" x="170" y="34" width="9" height="16" xoffset="0" yoffset="0" xadvance="9" page="0" chnl="15" />
    <char id="98" x="180" y="34" width="9" height="16" xoffset="0" yoffset="0" xadvance="9" page="0" chnl="15" />
    <char id="99" x="190" y="34" width="9" height="16" xoffset="0" yoffset="0" xadvance="9" page="0" chnl="15" />
    <char id="100" x="200" y="34" width="9" height="16" xoffset="0" yoffset="0" xadvance="9" page="0" chnl="15" />
    <char id="101" x="210" y="34" width="9" height="16" xoffset="0" yoffset="0" xadvance="9" page="0" chnl="15" />
    <char id="102" x="220" y="34" width="9" height="16" xoffset="0" yoffset="0" xadvance="9" page="0" chnl="15" />
    <char id="103" x="230" y="34" width="9" height="16" xoffset="0" yoffset="0" xadvance="9" page="0" chnl="15" />
    <char id="104" x="240" y="34" width="9" height="16" xoffset="0" yoffset="0" xadvance="9" page="0" chnl="15" />
    <char id="105" x="0" y="51" width="9" height="16" xoffset="0" yoffset="0" xadvance="9" page="0" chnl="15" />
    <char id="106" x="10" y="51" width="9" height="16" xoffset="0" yoffset="0" xadvance="9" page="0" chnl="15" />
    <char id="107" x="20" y="51" width="9" height="16" xoffset="0" yoffset="0" xadvance="9" page="0" chnl="15" />
    <char id="108" x="30" y="51" width="9" height="16" xoffset="0" yoffset="0" xadvance="9" page="0" chnl="15" />
    <char id="109" x="40" y="51" width="9" height="16" xoffset="0" yoffset="0" xadvance="9" page="0" chnl="15" />
    <char id="110" x="50" y="51" width="9" height="16" xoffset="0" yoffset="0" xadvance="9" page="0" chnl="15" />
    <char id="111" x="60" y="51" width="9" height="16" xoffset="0" yoffset="0" xadvance="9" page="0" chnl="15" />
    <char id="112" x="70" y="51" width="9" height="16" xoffset="0" yoffset="0" xadvance="9" page="0" chnl="15" />
    <char id="113" x="80" y="51" width="9" height="16" xoffset="0" yoffset="0" xadvance="9" page="0" chnl="15" />
    <char id="114" x="90" y="51" width="9" height="16" xoffset="0" yoffset="0" xadvance="9" page="0" chnl="15" />
    <char id="115" x="100" y="51" width="9" height="16" xoffset="0" yoffset="0" xadvance="9" page="0" chnl="15" />
    <char id="116" x="110" y="51" width="9" height="16" xoffset="0" yoffset="0" xadvance="9" page="0" chnl="15" />
    <char id="117" x="120" y="51" width="9" height="16" xoffset="0" yoffset="0" xadvance="9" page="0" chnl="15" />
    <char id="118" x="130" y="51" width="9" height="16" xoffset="0" yoffset="0" xadvance="9" page="0" chnl="15" />
    <char id="119" x="140" y="51" width="9" height="16" xoffset="0" yoffset="0" xadvance="9" page="0" chnl="15" />
    <char id="120" x="150" y="51" width="9" height="16" xoffset="0" yoffset="0" xadvance="9" page="0" chnl="15" />
    <char id="121" x="160" y="51" width="9" height="16" xoffset="0" yoffset="0" xadvance="9" page="0" chnl="15" />
    <char id="122" x="170" y="51" width="9" height="16" xoffset="0" yoffset="0" xadvance="9" page="0" chnl="15" />
    <char id="123" x="180" y="51" width="9" height="16" xoffset="0" yoffset="0" xadvance="9" page="0" chnl="15" />
    <char id="124" x="190" y="51" width="9" height="16" xoffset="0" yoffset="0" xadvance="9" page="0" chnl="15" />
    <char id="125" x="200" y="51" width="9" height="16" xoffset="0" yoffset="0" xadvance="9" page="0" chnl="15" />
    <char id="126" x="210" y="51" width="9" height="16" xoffset="0" yoffset="0" xadvance="9" page="0" chnl="15" />
  </chars>
</font>
